…
-- Create an R-Tree index on the geometry column (with a low max_node_capacity for demonstration purposes)
CREATE INDEX my_idx ON t1 USING RTREE (geom) WITH (max_node_capacity = 4);

-- Inspect the R-Tree index! Notice how the area of the bounding boxes of the branch nodes 
-- decreases as we go deeper into the tree.
SELECT 
  level, 
  bounds::GEOMETRY as geom, 
  CASE WHEN row_id IS NULL THEN st_area(geom) ELSE NULL END as area, 
  row_id, 
  CASE WHEN row_id IS NULL THEN 'branch' ELSE 'leaf' END as kind 
FROM rtree_index_dump('my_idx') 
ORDER BY area DESC;
----
┌───────┬──────────────────────────────┬────────────────────┬────────┬─────────┐
│ level │             geom             │        area        │ row_id │  kind   │
│ int32 │           geometry           │       double       │ int64  │ varchar │
├───────┼──────────────────────────────┼────────────────────┼────────┼─────────┤
│     0 │ POLYGON ((2.17285037040710…  │  3286.396482226409 │        │ branch  │
│     0 │ POLYGON ((6.00962591171264…  │  3193.725100864862 │        │ branch  │
│     0 │ POLYGON ((0.74995160102844…  │  3099.921458393704 │        │ branch  │
│     0 │ POLYGON ((14.6168870925903…  │ 2322.2760491675654 │        │ branch  │
│     1 │ POLYGON ((2.17285037040710…  │  604.1520104388514 │        │ branch  │
│     1 │ POLYGON ((26.6022186279296…  │  569.1665467030252 │        │ branch  │
│     1 │ POLYGON ((35.7942314147949…  │ 435.24662436250037 │        │ branch  │
│     1 │ POLYGON ((62.2643051147460…  │ 396.39027683023596 │        │ branch  │
│     1 │ POLYGON ((59.5225715637207…  │ 386.09153403820187 │        │ branch  │
│     1 │ POLYGON ((82.3060836791992…  │ 369.15115640929434 │        │ branch  │
│     · │              ·               │          ·         │      · │  ·      │
│     · │              ·               │          ·         │      · │  ·      │
│     · │              ·               │          ·         │      · │  ·      │
│     2 │ POLYGON ((20.5411434173584…  │                    │     35 │ leaf    │
│     2 │ POLYGON ((14.6168870925903…  │                    │     36 │ leaf    │
│     2 │ POLYGON ((43.7271652221679…  │                    │     39 │ leaf    │
│     2 │ POLYGON ((53.4629211425781…  │                    │     44 │ leaf    │
│     2 │ POLYGON ((26.6022186279296…  │                    │     62 │ leaf    │
│     2 │ POLYGON ((53.1732063293457…  │                    │     63 │ leaf    │
│     2 │ POLYGON ((78.1427154541015…  │                    │     10 │ leaf    │
│     2 │ POLYGON ((75.1728591918945…  │                    │     15 │ leaf    │
│     2 │ POLYGON ((62.2643051147460…  │                    │     42 │ leaf    │
│     2 │ POLYGON ((80.5032577514648…  │                    │     49 │ leaf    │
├───────┴──────────────────────────────┴────────────────────┴────────┴─────────┤
│ 84 rows (20 shown)                                                 5 columns │
└──────────────────────────────────────────────────────────────────────────────┘
```
