…
**jemalloc**. In addition, this release bundles the [jemalloc allocator](https://github.com/duckdb/duckdb/pull/4971) with the Linux version of DuckDB by default, which fixes an outstanding issue where the standard `GLIBC` allocator would not return blocks to the operating system, unnecessarily leading to out-of-memory errors on the Linux version. Note that this problem does not occur on MacOS or Windows, and as such we continue using the standard allocators there (at least for now).

#### Shell Improvements
DuckDB has a command-line interface that is adapted from SQLite's command line interface, and therefore supports an extremely similar interface to SQLite. All of the tables in this blog post have been generated using the `.mode markdown` in the CLI.

The DuckDB shell also offers several improvements over the SQLite shell, such as syntax highlighting, and this release includes a few new goodies.

**DuckBox Rendering**. This release includes a [new `.mode duckbox` rendering](https://github.com/duckdb/duckdb/pull/5140) that is used by default. This box rendering adapts to the size of the shell, and leaves out columns and rows to provide a better overview of a result. It very quickly renders large result sets by leaving out rows in the middle. That way, typing `SELECT * FROM tbl` in the shell no longer blows it up. In fact, this can now be used to quickly get a good feel of a dataset instead.

The number of rows that are rendered can be changed by using the `.maxrows X` setting, and you can switch back to the old rendering using the `.mode box` command.

```
D SELECT * FROM '~/Data/nyctaxi/nyc-taxi/2014/04/data.parquet';
┌───────────┬─────────────────────┬─────────────────────┬───┬────────────┬──────────────┬──────────────┐
│ vendor_id │      pickup_at      │     dropoff_at      │ … │ tip_amount │ tolls_amount │ total_amount │
│  varchar  │      timestamp      │      timestamp      │   │   float    │    float     │    float     │
├───────────┼─────────────────────┼─────────────────────┼───┼────────────┼──────────────┼──────────────┤
│ CMT       │ 2014-04-08 08:59:39 │ 2014-04-08 09:28:57 │ … │        3.7 │          0.0 │         22.2 │
│ CMT       │ 2014-04-08 14:59:22 │ 2014-04-08 15:04:52 │ … │        1.3 │          0.0 │          7.8 │
│ CMT       │ 2014-04-08 08:45:28 │ 2014-04-08 08:50:41 │ … │        1.2 │          0.0 │          7.2 │
│ CMT       │ 2014-04-08 08:00:20 │ 2014-04-08 08:11:31 │ … │        1.7 │          0.0 │         10.2 │
│ CMT       │ 2014-04-08 08:38:36 │ 2014-04-08 08:44:37 │ … │        1.2 │          0.0 │          7.2 │
│ CMT       │ 2014-04-08 07:52:53 │ 2014-04-08 07:59:12 │ … │        1.3 │          0.0 │          7.8 │
│ CMT       │ 2014-04-08 16:08:16 │ 2014-04-08 16:12:38 │ … │        1.4 │          0.0 │          8.4 │
│ CMT       │ 2014-04-08 12:04:09 │ 2014-04-08 12:14:30 │ … │        1.7 │          0.0 │         10.2 │
│ CMT       │ 2014-04-08 16:18:38 │ 2014-04-08 16:37:04 │ … │        2.5 │          0.0 │         17.5 │
│ CMT       │ 2014-04-08 15:28:00 │ 2014-04-08 15:34:44 │ … │        1.4 │          0.0 │          8.4 │
│  ·        │          ·          │          ·          │ · │         ·  │           ·  │           ·  │
│  ·        │          ·          │          ·          │ · │         ·  │           ·  │           ·  │
│  ·        │          ·          │          ·          │ · │         ·  │           ·  │           ·  │
│ CMT       │ 2014-04-25 00:09:34 │ 2014-04-25 00:14:52 │ … │        2.5 │          0.0 │         10.0 │
│ CMT       │ 2014-04-25 01:59:39 │ 2014-04-25 02:16:07 │ … │        3.5 │          0.0 │         21.0 │
│ CMT       │ 2014-04-24 23:02:08 │ 2014-04-24 23:47:10 │ … │        8.8 │          0.0 │         52.8 │
│ CMT       │ 2014-04-25 01:27:11 │ 2014-04-25 01:56:53 │ … │        4.6 │          0.0 │         27.6 │
│ CMT       │ 2014-04-25 00:15:46 │ 2014-04-25 00:25:37 │ … │        1.0 │          0.0 │         11.5 │
│ CMT       │ 2014-04-25 00:17:53 │ 2014-04-25 00:22:52 │ … │        1.3 │          0.0 │          7.8 │
│ CMT       │ 2014-04-25 03:13:19 │ 2014-04-25 03:21:50 │ … │        2.1 │          0.0 │         12.6 │
│ CMT       │ 2014-04-24 23:53:03 │ 2014-04-25 00:16:01 │ … │       2.85 │          0.0 │        31.35 │
│ CMT       │ 2014-04-25 00:26:08 │ 2014-04-25 00:31:25 │ … │        1.4 │          0.0 │          8.4 │
│ CMT       │ 2014-04-24 23:21:39 │ 2014-04-24 23:33:57 │ … │        1.0 │          0.0 │         11.5 │
├───────────┴─────────────────────┴─────────────────────┴───┴────────────┴──────────────┴──────────────┤
│ 14618759 rows (20 shown)                                                        18 columns (6 shown) │
└──────────────────────────────────────────────────────────────────────────────────────────────────────┘
```
…
