…
One way of implementing tumbling windows is to use the [`date_trunc` function]({% link docs/stable/sql/functions/timestamp.md %}#date_truncpart-timestamp), which will truncate the timestamp to the specified precision. For example, in the following, we retrieve the number of services for each hour and each day in 2024:

```sql
SELECT
    date_trunc('hour', station_service_time) AS window_start,
    window_start + INTERVAL 1 HOUR AS window_end,
    count(*) AS number_of_services
FROM ams_traffic_v
WHERE year(station_service_time) = 2024
GROUP BY ALL
ORDER BY 1;
```

```text
┌─────────────────────┬─────────────────────┬────────────────────┐
│    window_start     │     window_end      │ number_of_services │
│      timestamp      │      timestamp      │       int64        │
├─────────────────────┼─────────────────────┼────────────────────┤
│ 2024-01-01 01:00:00 │ 2024-01-01 02:00:00 │                  2 │
│ 2024-01-01 02:00:00 │ 2024-01-01 03:00:00 │                  3 │
│ 2024-01-01 03:00:00 │ 2024-01-01 04:00:00 │                  4 │
│          ·          │          ·          │                  · │
│          ·          │          ·          │                  · │
│          ·          │          ·          │                  · │
│ 2024-12-31 20:00:00 │ 2024-12-31 21:00:00 │                  9 │
│ 2024-12-31 21:00:00 │ 2024-12-31 22:00:00 │                  1 │
│ 2024-12-31 23:00:00 │ 2025-01-01 00:00:00 │                  2 │
├─────────────────────┴─────────────────────┴────────────────────┤
│ 8781 rows (6 shown)                                  3 columns │
└────────────────────────────────────────────────────────────────┘
```
…
```text
┌─────────────────────┬─────────────────────┬────────────────────┐
│    window_start     │     window_end      │ number_of_services │
│      timestamp      │      timestamp      │       int64        │
├─────────────────────┼─────────────────────┼────────────────────┤
│ 2024-01-01 01:30:00 │ 2024-01-01 01:45:00 │                  1 │
│ 2024-01-01 01:45:00 │ 2024-01-01 02:00:00 │                  1 │
│ 2024-01-01 02:15:00 │ 2024-01-01 02:30:00 │                  2 │
│          ·          │          ·          │                  · │
│          ·          │          ·          │                  · │
│          ·          │          ·          │                  · │
│ 2024-12-31 20:45:00 │ 2024-12-31 21:00:00 │                  2 │
│ 2024-12-31 21:00:00 │ 2024-12-31 21:15:00 │                  1 │
│ 2024-12-31 23:45:00 │ 2025-01-01 00:00:00 │                  2 │
├─────────────────────┴─────────────────────┴────────────────────┤
│ 32932 rows (6 shown)                                 3 columns │
└────────────────────────────────────────────────────────────────┘
```
…
```sql
WITH time_range AS (
    SELECT
        range AS window_start,
        window_start + INTERVAL 15 MINUTE AS window_end
    FROM range(
        '2024-01-01 00:00:00'::TIMESTAMP,
        '2025-01-01 00:00:00'::TIMESTAMP,
        INTERVAL 5 MINUTE -- hopping size
    )
)
```

```text
┌─────────────────────┬─────────────────────┐
│    window_start     │     window_end      │
│      timestamp      │      timestamp      │
├─────────────────────┼─────────────────────┤
│ 2024-01-01 00:00:00 │ 2024-01-01 00:15:00 │
│ 2024-01-01 00:05:00 │ 2024-01-01 00:20:00 │
│ 2024-01-01 00:10:00 │ 2024-01-01 00:25:00 │
│          ·          │          ·          │
│          ·          │          ·          │
│          ·          │          ·          │
│ 2024-12-31 23:45:00 │ 2025-01-01 00:00:00 │
│ 2024-12-31 23:50:00 │ 2025-01-01 00:05:00 │
│ 2024-12-31 23:55:00 │ 2025-01-01 00:10:00 │
├─────────────────────┴─────────────────────┤
│ 105408 rows (6 shown)           2 columns │
└───────────────────────────────────────────┘
```
…
In the above query we also calculate the gap, in minutes, between the current service and the previous service, with [`date_diff`]({% link docs/stable/sql/functions/time.md %}#date_diffpart-starttime-endtime). If there is no previous service, the column will be `NULL`, depicting the first service session in the day:

```text
┌──────────────────────┬───────────────────────┬─────────────┐
│ station_service_time │ previous_service_time │ gap_minutes │
│      timestamp       │       timestamp       │    int64    │
├──────────────────────┼───────────────────────┼─────────────┤
│ 2024-01-09 06:00:00  │ NULL                  │        NULL │
│ 2024-01-16 06:00:00  │ NULL                  │        NULL │
│ 2024-01-22 06:00:00  │ NULL                  │        NULL │
│          ·           │  ·                    │          ·  │
│          ·           │  ·                    │          ·  │
│          ·           │  ·                    │          ·  │
│ 2024-11-28 06:01:00  │ NULL                  │        NULL │
│ 2024-12-05 06:01:00  │ NULL                  │        NULL │
│ 2024-12-23 06:00:00  │ NULL                  │        NULL │
├──────────────────────┴───────────────────────┴─────────────┤
│ 366 rows (6 shown)                               3 columns │
└────────────────────────────────────────────────────────────┘
```
…
